…
I created a dataframe with extra two columnsL: the primary language spoken in a country ("languages") and whether they belong to NATO ("NATO"). I also editted the original gapminder dataset so it contains less information. To be convinient, I condensed gpd and life expectancy in all years into mean so that one country only have one line. Vatican and Brunei are two countries that are not in original gapminder for testing.

``` r
left_join(gapminder_editted, dat_test, by="country")
```

    ## Warning: Column `country` joining factors with different levels, coercing
    ## to character vector

    ## # A tibble: 142 x 5
    ##        country mean_gdpPercap mean_lifeExp languages  NATO
    ##          <chr>          <dbl>        <dbl>    <fctr> <dbl>
    ##  1 Afghanistan       802.6746     37.47883      <NA>    NA
    ##  2     Albania      3255.3666     68.43292      <NA>    NA
    ##  3     Algeria      4426.0260     59.03017      <NA>    NA
    ##  4      Angola      3607.1005     37.88350      <NA>    NA
    ##  5   Argentina      8955.5538     69.06042  Spainish     0
    ##  6   Australia     19980.5956     74.66292      <NA>    NA
    ##  7     Austria     20411.9163     73.10325      <NA>    NA
    ##  8     Bahrain     18077.6639     65.60567      <NA>    NA
    ##  9  Bangladesh       817.5588     49.83408      <NA>    NA
    ## 10     Belgium     19900.7581     73.64175      <NA>    NA
    ## # ... with 132 more rows
…
Inner\_join keeps only those countries that occur in both datasets. Therefore, information about Vatican and Brunei are dropped. Other than that, information from both dat\_test and gapminder\_editted are added for those countries appear in both datasets.

``` r
full_join(gapminder_editted, dat_test, by="country")
```

    ## Warning: Column `country` joining factors with different levels, coercing
    ## to character vector

    ## # A tibble: 144 x 5
    ##        country mean_gdpPercap mean_lifeExp languages  NATO
    ##          <chr>          <dbl>        <dbl>    <fctr> <dbl>
    ##  1 Afghanistan       802.6746     37.47883      <NA>    NA
    ##  2     Albania      3255.3666     68.43292      <NA>    NA
    ##  3     Algeria      4426.0260     59.03017      <NA>    NA
    ##  4      Angola      3607.1005     37.88350      <NA>    NA
    ##  5   Argentina      8955.5538     69.06042  Spainish     0
    ##  6   Australia     19980.5956     74.66292      <NA>    NA
    ##  7     Austria     20411.9163     73.10325      <NA>    NA
    ##  8     Bahrain     18077.6639     65.60567      <NA>    NA
    ##  9  Bangladesh       817.5588     49.83408      <NA>    NA
    ## 10     Belgium     19900.7581     73.64175      <NA>    NA
    ## # ... with 134 more rows
…
