…
``` r
dat1 <- gapminder %>%
  select(country, lifeExp, year) %>% 
  group_by(country) %>% 
  summarise(weighted_lifeExp = weighted.mean(lifeExp, c(1:12)/78))

dat2 <- gapminder %>%
  select(country, lifeExp, year) %>% 
  group_by(country) %>%
  summarize(mean(lifeExp))

inner_join(dat1, dat2, by="country")
```

    ## # A tibble: 142 x 3
    ##        country weighted_lifeExp `mean(lifeExp)`
    ##         <fctr>            <dbl>           <dbl>
    ##  1 Afghanistan         40.00268        37.47883
    ##  2     Albania         71.50085        68.43292
    ##  3     Algeria         64.24856        59.03017
    ##  4      Angola         39.80245        37.88350
    ##  5   Argentina         71.18441        69.06042
    ##  6   Australia         76.75038        74.66292
    ##  7     Austria         75.32151        73.10325
    ##  8     Bahrain         69.89115        65.60567
    ##  9  Bangladesh         54.40028        49.83408
    ## 10     Belgium         75.55836        73.64175
    ## # ... with 132 more rows
…
