…
Part 3: Work with a nested data frame
=====================================

### Nesting

``` r
gap_nested <- gapminder %>% 
   group_by(continent, country) %>% 
   nest()
gap_nested
```

    ## # A tibble: 142 x 3
    ##    continent     country              data
    ##       <fctr>      <fctr>            <list>
    ##  1      Asia Afghanistan <tibble [12 x 4]>
    ##  2    Europe     Albania <tibble [12 x 4]>
    ##  3    Africa     Algeria <tibble [12 x 4]>
    ##  4    Africa      Angola <tibble [12 x 4]>
    ##  5  Americas   Argentina <tibble [12 x 4]>
    ##  6   Oceania   Australia <tibble [12 x 4]>
    ##  7    Europe     Austria <tibble [12 x 4]>
    ##  8      Asia     Bahrain <tibble [12 x 4]>
    ##  9      Asia  Bangladesh <tibble [12 x 4]>
    ## 10    Europe     Belgium <tibble [12 x 4]>
    ## # ... with 132 more rows
…
Next we want to generalize it to all countries in the nested dataframe:

``` r
gap_nested <- gap_nested %>% 
   mutate(fit = map(data, my_fit))
gap_nested
```

    ## # A tibble: 142 x 4
    ##    continent     country              data      fit
    ##       <fctr>      <fctr>            <list>   <list>
    ##  1      Asia Afghanistan <tibble [12 x 4]> <S3: lm>
    ##  2    Europe     Albania <tibble [12 x 4]> <S3: lm>
    ##  3    Africa     Algeria <tibble [12 x 4]> <S3: lm>
    ##  4    Africa      Angola <tibble [12 x 4]> <S3: lm>
    ##  5  Americas   Argentina <tibble [12 x 4]> <S3: lm>
    ##  6   Oceania   Australia <tibble [12 x 4]> <S3: lm>
    ##  7    Europe     Austria <tibble [12 x 4]> <S3: lm>
    ##  8      Asia     Bahrain <tibble [12 x 4]> <S3: lm>
    ##  9      Asia  Bangladesh <tibble [12 x 4]> <S3: lm>
    ## 10    Europe     Belgium <tibble [12 x 4]> <S3: lm>
    ## # ... with 132 more rows
…
``` r
gap_nested <- gap_nested %>% 
  mutate(tidy = map(fit, tidy))
```

Then we can delete the redundant information about data and fit and only keep the information after `tidy()`:

``` r
gap_coefs <- gap_nested %>%
   dplyr::select(continent, country, tidy) %>%
   unnest(tidy)
gap_coefs
```

    ## # A tibble: 426 x 7
    ##    continent     country                 term     estimate    std.error
    ##       <fctr>      <fctr>                <chr>        <dbl>        <dbl>
    ##  1      Asia Afghanistan          (Intercept) 28.178686813 0.4330129763
    ##  2      Asia Afghanistan     I(year - offset)  0.482761638 0.0366012911
    ##  3      Asia Afghanistan I((year - offset)^2) -0.003771508 0.0006412076
    ##  4    Europe     Albania          (Intercept) 56.853134615 1.0134515113
    ##  5    Europe     Albania     I(year - offset)  0.619802448 0.0856640234
    ##  6    Europe     Albania I((year - offset)^2) -0.005183986 0.0015007236
    ##  7    Africa     Algeria          (Intercept) 41.942236264 0.7537233613
    ##  8    Africa     Algeria     I(year - offset)  0.741208292 0.0637099802
    ##  9    Africa     Algeria I((year - offset)^2) -0.003125974 0.0011161170
    ## 10    Africa      Angola          (Intercept) 30.117670330 0.4785540412
    ## # ... with 416 more rows, and 2 more variables: statistic <dbl>,
    ## #   p.value <dbl>

The level names inside term is a bit hard to understand. Using the functions in hw05, we can rename the levels:

``` r
library(forcats)
gap_coefs %>% 
  mutate(term = fct_recode(term, "Intercept" = "(Intercept)",
                               "coef_linear" = "I(year - offset)",
                               "coef_quadratic" = "I((year - offset)^2)")) %>% 
  droplevels()
```

    ## # A tibble: 426 x 7
    ##    continent     country           term     estimate    std.error
    ##       <fctr>      <fctr>         <fctr>        <dbl>        <dbl>
    ##  1      Asia Afghanistan      Intercept 28.178686813 0.4330129763
    ##  2      Asia Afghanistan    coef_linear  0.482761638 0.0366012911
    ##  3      Asia Afghanistan coef_quadratic -0.003771508 0.0006412076
    ##  4    Europe     Albania      Intercept 56.853134615 1.0134515113
    ##  5    Europe     Albania    coef_linear  0.619802448 0.0856640234
    ##  6    Europe     Albania coef_quadratic -0.005183986 0.0015007236
    ##  7    Africa     Algeria      Intercept 41.942236264 0.7537233613
    ##  8    Africa     Algeria    coef_linear  0.741208292 0.0637099802
    ##  9    Africa     Algeria coef_quadratic -0.003125974 0.0011161170
    ## 10    Africa      Angola      Intercept 30.117670330 0.4785540412
    ## # ... with 416 more rows, and 2 more variables: statistic <dbl>,
    ## #   p.value <dbl>
…
